dump.vcd
$date
   Thu Nov 18 22:20:35 2021
$end
$version
  2016.2
$end
$timescale
  1ps
$end
$scope module Tb_PixelDigital $end
$var wire 1 ! tb_Ser_Out $end
$var reg 1 " tb_Shift $end
$var reg 1 # tb_Phase3 $end
$var reg 1 $ tb_Ser_in $end
$var reg 1 % tb_clr_FF $end
$var wire 1 & tb_Pix_clk $end
$var reg 1 ' clk_10MHz $end
$var reg 1 ( clk_25MHz $end
$var wire 1 ) tb_Sh_clk $end
$scope module pd $end
$var wire 1 * Shift $end
$var wire 1 + Phase3 $end
$var wire 1 , Ser_in $end
$var wire 1 ) Sh_clk $end
$var wire 1 - clr_FF $end
$var wire 1 . Pix_clk $end
$var wire 1 ! Ser_Out $end
$var wire 1 / NOR_in $end
$var wire 1 0 XNOR_out $end
$var wire 1 1 Gated_sh_clk $end
$var wire 1 2 Mux1_out $end
$var wire 1 3 Sft_reg_Clk $end
$var wire 1 4 Sft_in $end
$var wire 1 5 Q6_out $end
$scope module SRF $end
$var wire 1 . s $end
$var wire 1 - r $end
$var wire 1 6 clk $end
$var reg 1 7 q $end
$var reg 1 8 q_bar $end
$upscope $end
$scope module M1 $end
$var wire 1 2 Y $end
$var wire 1 . D0 $end
$var wire 1 1 D1 $end
$var wire 1 + S $end
$var wire 1 9 T1 $end
$var wire 1 : T2 $end
$var wire 1 ; Sbar $end
$upscope $end
$scope module M2 $end
$var wire 1 3 Y $end
$var wire 1 2 D0 $end
$var wire 1 ) D1 $end
$var wire 1 * S $end
$var wire 1 < T1 $end
$var wire 1 = T2 $end
$var wire 1 > Sbar $end
$upscope $end
$scope module M3 $end
$var wire 1 4 Y $end
$var wire 1 0 D0 $end
$var wire 1 , D1 $end
$var wire 1 * S $end
$var wire 1 ? T1 $end
$var wire 1 @ T2 $end
$var wire 1 A Sbar $end
$upscope $end
$scope module SftR $end
$var wire 1 3 Clk $end
$var wire 1 4 SI $end
$var wire 1 ! SO $end
$var wire 1 5 Q6_out $end
$var reg 10 B tmp [9:0] $end
$upscope $end
$upscope $end
$upscope $end
$enddefinitions $end
#0
$dumpvars
x!
1"
0#
0$
0%
0&
0'
0(
0)
1*
0+
0,
0-
0.
x/
x0
01
02
03
04
x5
z6
x7
x8
09
0:
1;
0<
0=
0>
0?
0@
0A
bx B
$end
#20000
1$
1(
0)
1,
14
1?
#40000
0(
0)
#50000
1#
1%
0)
1+
1-
0/
01
07
18
09
0:
0;
#60000
1(
1)
11
12
13
19
1<
0=
bx1 B
#80000
0(
0)
01
02
03
09
0<
0=
#100000
0$
0%
1&
1'
1(
1)
0,
0-
1.
1/
01
02
13
04
17
08
09
0:
1<
0=
0?
bx11 B
#120000
0(
0)
01
03
0<
#140000
1(
1)
01
13
1<
bx110 B
#160000
0(
0)
01
03
0<
#180000
1$
1(
1)
1,
01
13
14
1<
1?
bx1100 B
#200000
0&
0'
0(
0)
0.
01
03
17
08
0:
0<
#220000
1(
1)
01
13
1<
bx11001 B
#240000
0(
0)
01
03
0<
#260000
0$
1(
1)
0,
01
13
04
1<
0?
bx110011 B
#280000
0(
0)
01
03
0<
#300000
1&
1'
1(
1)
1.
x0
01
13
15
17
08
0:
1<
bx1100110 B
#320000
0(
0)
01
03
0<
#340000
1$
1(
1)
1,
01
13
14
1<
1?
bx11001100 B
#360000
0(
0)
01
03
0<
#380000
1(
1)
x0
01
13
05
1<
bx110011001 B
#400000
0&
0'
0(
0)
0.
01
03
17
08
0:
0<
#420000
1!
0$
1(
1)
0,
00
01
13
04
1<
0?
0@
b1100110011 B
#440000
0(
0)
01
03
0<
#460000
1(
1)
10
01
13
15
1<
0@
b1001100110 B
#480000
0(
0)
01
03
0<
#500000
0!
1$
1&
1'
1(
1)
1,
1.
00
01
13
14
17
08
0:
1<
1?
0@
b11001100 B
#520000
0(
0)
01
03
0<
#540000
1(
1)
10
01
13
05
1<
0@
b110011001 B
#560000
0(
0)
01
03
0<
#580000
1!
0$
1(
1)
0,
00
01
13
04
1<
0?
0@
b1100110011 B
#600000
0&
0'
0(
0)
0.
01
03
17
08
0:
0<
#620000
1(
1)
10
01
13
15
1<
0@
b1001100110 B
#640000
0(
0)
01
03
0<
#660000
0!
1$
1(
1)
1,
00
01
13
14
1<
1?
0@
b11001100 B
#680000
0(
0)
01
03
0<
#700000
1&
1'
1(
1)
1.
10
01
13
05
17
08
0:
1<
0@
b110011001 B
#720000
0(
0)
01
03
0<
#740000
1!
0$
1(
1)
0,
00
01
13
04
1<
0?
0@
b1100110011 B
#760000
0(
0)
01
03
0<
#780000
1(
1)
10
01
13
15
1<
0@
b1001100110 B
#800000
0"
0&
0'
0(
0)
0*
0.
01
03
14
17
08
0:
0<
0=
1>
0?
1@
1A
#820000
1$
1(
1)
1,
01
0<
0?
#840000
0(
0)
01
0<
#860000
1(
1)
01
0<
#880000
0(
0)
01
0<
#900000
0$
1&
1'
1(
1)
0,
1.
01
17
08
0:
0<
0?
#920000
0(
0)
01
0<
#940000
1(
1)
01
0<
#960000
0(
0)
01
0<
#980000
1$
1(
1)
1,
01
0<
0?
#1000000
0&
0'
0(
0)
0.
01
17
08
0:
0<
#1020000
1(
1)
01
0<
#1040000
0(
0)
01
0<
#1050000
0#
0)
0+
09
0:
1;
#1060000
0$
1(
0)
0,
0?
#1080000
0(
0)
#1100000
0!
1"
1&
1'
1(
1)
1*
1.
00
01
12
13
04
17
08
1:
1<
0=
0>
0?
0@
0A
b11001100 B
#1120000
0(
1)
#1140000
1$
1(
1)
1,
14
1?
#1160000
0(
1)
#1180000
1(
1)
#1200000
0&
0'
0(
0)
0.
01
02
03
17
08
0:
0<
0=
#1220000
0$
1(
0)
0,
04
0?
#1240000
0(
0)
#1260000
1(
0)
#1280000
0(
0)
#1300000
1$
1&
1'
1(
1)
1,
1.
10
01
12
13
14
05
17
08
1:
1<
0=
1?
0@
b110011000 B
#1320000
0(
1)
#1340000
1(
1)
#1360000
0(
1)
#1380000
0$
1(
1)
0,
04
0?
#1400000
1!
0"
0&
0'
0(
0)
0*
0.
00
01
02
03
04
17
08
0:
0<
0=
1>
0?
0@
1A
b1100110001 B
#1420000
1(
0)
#1440000
0(
0)
#1460000
1$
1(
0)
1,
0?
#1480000
0(
0)
#1500000
1&
1'
1(
1)
1.
10
01
12
13
14
15
17
08
1:
0<
1=
1@
b1001100010 B
#1520000
0(
1)
#1540000
0$
1(
1)
0,
0?
#1550000
1#
1)
1+
02
03
09
0:
0;
0=
#1560000
0(
0)
01
0<
#1580000
1(
1)
01
0<
#1600000
0&
0'
0(
0)
0.
01
17
08
0:
0<
#1620000
1$
1(
1)
1,
01
0<
0?
#1640000
0(
0)
01
0<
#1660000
1(
1)
01
0<
#1680000
0(
0)
01
0<
#1700000
0!
1"
0$
1&
1'
1(
1)
1*
0,
1.
00
01
13
04
17
08
0:
1<
0=
0>
0?
0@
0A
b11000101 B
#1720000
0(
0)
01
03
0<
#1740000
1(
1)
10
01
13
05
1<
0@
b110001010 B
#1760000
0(
0)
01
03
0<
#1780000
1!
1$
1(
1)
1,
00
01
13
14
1<
1?
0@
b1100010100 B
#1800000
0&
0'
0(
0)
0.
01
03
17
08
0:
0<
#1820000
1(
1)
01
13
1<
b1000101001 B
#1840000
0(
0)
01
03
0<
#1860000
0!
0$
1(
1)
0,
00
01
13
04
15
1<
0?
b1010011 B
#1880000
0(
0)
01
03
0<
#1900000
1&
1'
1(
1)
1.
10
01
13
05
17
08
0:
1<
0@
b10100110 B
#1920000
0(
0)
01
03
0<
#1940000
1$
1(
1)
1,
00
01
13
14
15
1<
1?
0@
b101001100 B
#1960000
0(
0)
01
03
0<
#1980000
1!
1(
1)
00
01
13
05
1<
b1010011001 B
#2000000
0&
0'
0(
0)
0.
01
03
17
08
0:
0<
#2020000
0!
0$
1(
1)
0,
10
01
13
04
1<
0?
0@
b100110011 B
#2040000
0(
0)
01
03
0<
#2060000
1!
1(
1)
10
01
13
15
1<
b1001100110 B
#2080000
0(
0)
01
03
0<
#2100000
0!
1$
1&
1'
1(
1)
1,
1.
00
01
13
14
17
08
0:
1<
1?
0@
b11001100 B
#2120000
0(
0)
01
03
0<
#2140000
1(
1)
10
01
13
05
1<
0@
b110011001 B
#2160000
0(
0)
01
03
0<
#2180000
1!
0$
1(
1)
0,
00
01
13
04
1<
0?
0@
b1100110011 B
#2200000
0&
0'
0(
0)
0.
01
03
17
08
0:
0<
#2220000
1(
1)
10
01
13
15
1<
0@
b1001100110 B
#2240000
0(
0)
01
03
0<
#2260000
0!
1$
1(
1)
1,
00
01
13
14
1<
1?
0@
b11001100 B
#2280000
0(
0)
01
03
0<
#2300000
1&
1'
1(
1)
1.
10
01
13
05
17
08
0:
1<
0@
b110011001 B
#2320000
0(
0)
01
03
0<
#2340000
1!
0$
1(
1)
0,
00
01
13
04
1<
0?
0@
b1100110011 B
#2360000
0(
0)
01
03
0<
#2380000
1(
1)
10
01
13
15
1<
0@
b1001100110 B
#2400000
0&
0'
0(
0)
0.
01
03
17
08
0:
0<
#2420000
0!
1$
1(
1)
1,
00
01
13
14
1<
1?
0@
b11001100 B
#2440000
0(
0)
01
03
0<
#2460000
1(
1)
10
01
13
05
1<
0@
b110011001 B
#2480000
0(
0)
01
03
0<
#2500000
0"
0$
1&
1'
1(
1)
0*
0,
1.
01
14
17
08
0:
0<
0=
1>
0?
1@
1A
#2520000
0(
0)
01
0<
#2540000
1(
1)
01
0<
#2550000
1!
0#
1)
0+
00
12
13
04
09
1:
1;
1=
0@
b1100110011 B
#2560000
0(
1)
#2580000
1$
1(
1)
1,
0?
#2600000
1#
0&
0'
0(
0)
1+
0.
01
02
03
17
08
09
0:
0;
0<
0=
#2620000
1(
1)
01
0<
#2640000
0(
0)
01
0<
#2660000
0$
1(
1)
0,
01
0<
0?
#2680000
0(
0)
01
0<
#2700000
1&
1'
1(
1)
1.
01
17
08
0:
0<
#2710000
1%
1-
x/
10
x1
x2
x3
14
15
x7
x8
x9
x=
1@
b1001100110 B
#2720000
0(
0)
01
02
03
09
0<
0=
#2740000
0!
1$
1(
1)
1,
00
x1
x2
x3
04
x9
0<
x=
0?
0@
b11001101 B
#2760000
0%
0(
0)
0-
1/
01
02
03
17
08
09
0<
0=
#2780000
1(
1)
01
0<
#2800000
1"
0&
0'
0(
0)
1*
0.
10
01
03
14
05
17
08
0:
0<
0=
0>
1?
0@
0A
b110011011 B
#2820000
1!
0$
1(
1)
0,
00
01
13
04
1<
0?
0@
b1100110111 B
#2840000
0(
0)
01
03
0<
#2860000
1(
1)
10
01
13
15
1<
0@
b1001101110 B
#2880000
0(
0)
01
03
0<
#2900000
0!
1$
1&
1'
1(
1)
1,
1.
00
01
13
14
17
08
0:
1<
1?
0@
b11011100 B
#2920000
0(
0)
01
03
0<
#2940000
1(
1)
10
01
13
05
1<
0@
b110111001 B
#2960000
0(
0)
01
03
0<
#2980000
1!
0$
1(
1)
0,
10
01
13
04
15
1<
0?
b1101110011 B
#3000000
0&
0'
0(
0)
0.
01
03
17
08
0:
0<
#3020000
1(
1)
01
13
1<
b1011100110 B
#3040000
0(
0)
01
03
0<
#3060000
0!
1$
1(
1)
1,
00
01
13
14
1<
1?
0@
b111001100 B
#3080000
0(
0)
01
03
0<
#3100000
0"
1&
1'
1(
1)
0*
1.
01
04
17
08
0:
0<
0=
1>
0?
0@
1A
#3120000
0(
0)
01
0<
#3140000
0$
1(
1)
0,
01
0<
0?
#3160000
0(
0)
01
0<
#3180000
1(
1)
01
0<
#3200000
0&
0'
0(
0)
0.
01
17
08
0:
0<
#3220000
1$
1(
1)
1,
01
0<
0?
#3240000
0(
0)
01
0<
#3260000
1(
1)
01
0<
#3280000
0(
0)
01
0<
#3300000
0$
1&
1'
1(
1)
0,
1.
01
17
08
0:
0<
0?
#3320000
0(
0)
01
0<
#3340000
1(
1)
01
0<
#3360000
0(
0)
01
0<
#3380000
1$
1(
1)
1,
01
0<
0?
#3400000
1!
1"
0&
0'
0(
0)
1*
0.
00
01
03
14
05
17
08
0:
0<
0=
0>
1?
0@
0A
b1110011001 B
#3420000
1(
1)
01
13
1<
b1100110011 B
#3440000
0(
0)
01
03
0<
#3460000
0$
1(
1)
0,
10
01
13
04
15
1<
0?
0@
b1001100111 B
#3480000
0(
0)
01
03
0<
#3500000
0!
1&
1'
1(
1)
1.
00
01
13
17
08
0:
1<
0@
b11001110 B
#3520000
0(
0)
01
03
0<
#3540000
1$
1(
1)
1,
10
01
13
14
05
1<
1?
0@
b110011100 B
#3560000
0(
0)
01
03
0<
#3580000
1!
1(
1)
00
01
13
1<
0@
b1100111001 B
#3600000
0#
0&
0'
0(
0)
0+
0.
01
03
17
08
09
0:
1;
0<
#3620000
0$
1(
0)
0,
04
0?
#3640000
0(
0)
#3660000
1(
0)
#3680000
0(
0)
#3700000
1$
1&
1'
1(
1)
1,
1.
10
01
12
13
14
15
17
08
1:
1<
0=
1?
0@
b1001110010 B
#3720000
0(
1)
#3740000
1(
1)
#3760000
0(
1)
#3780000
0$
1(
1)
0,
04
0?
#3800000
0&
0'
0(
0)
0.
01
02
03
17
08
0:
0<
0=
#3820000
1(
0)
#3840000
0(
0)
#3860000
1$
1(
0)
1,
14
1?
#3880000
0(
0)
#3900000
0!
1&
1'
1(
1)
1.
00
01
12
13
17
08
1:
1<
0=
0@
b11100101 B
#3920000
0(
1)
#3940000
0$
1(
1)
0,
04
0?
#3960000
0(
1)
#3980000
1(
1)
#4000000
0&
0'
0(
0)
0.
01
02
03
17
08
0:
0<
0=
#4020000
1$
1(
0)
1,
14
1?
#4040000
0(
0)
#4060000
1(
0)
#4080000
0(
0)
#4100000
1#
0$
1&
1'
1(
1)
1+
0,
1.
01
13
04
17
08
09
0:
0;
1<
0?
b111001011 B
#4120000
0(
0)
01
03
0<
#4140000
1!
1(
1)
00
01
13
05
1<
b1110010110 B
#4160000
0(
0)
01
03
0<
#4180000
1$
1(
1)
1,
01
13
14
1<
1?
b1100101100 B
#4200000
0"
0&
0'
0(
0)
0*
0.
01
03
04
17
08
0:
0<
0=
1>
0?
0@
1A
#4220000
1(
1)
01
0<
#4240000
0(
0)
01
0<
#4260000
0$
1(
1)
0,
01
0<
0?
#4280000
0(
0)
01
0<
#4300000
1&
1'
1(
1)
1.
01
17
08
0:
0<
#4320000
0(
0)
01
0<
#4340000
1$
1(
1)
1,
01
0<
0?
#4360000
0(
0)
01
0<
#4380000
1(
1)
01
0<
#4400000
0&
0'
0(
0)
0.
01
17
08
0:
0<
#4420000
0$
1(
1)
0,
01
0<
0?
#4440000
0(
0)
01
0<
#4460000
1(
1)
01
0<
#4480000
0(
0)
01
0<
#4500000
1"
1$
1&
1'
1(
1)
1*
1,
1.
10
01
13
14
15
17
08
0:
1<
0=
0>
1?
0@
0A
b1001011000 B
#4520000
0(
0)
01
03
0<
#4540000
0!
1(
1)
10
01
13
05
1<
b10110001 B
#4560000
0(
0)
01
03
0<
#4580000
0$
1(
1)
0,
00
01
13
04
15
1<
0?
0@
b101100011 B
#4600000
0&
0'
0(
0)
0.
01
03
17
08
0:
0<
#4620000
1!
1(
1)
10
01
13
1<
0@
b1011000110 B
#4640000
0(
0)
01
03
0<
#4660000
0!
1$
1(
1)
1,
10
01
13
14
05
1<
1?
b110001100 B
#4680000
0(
0)
01
03
0<
#4700000
1!
1&
1'
1(
1)
1.
00
01
13
17
08
0:
1<
0@
b1100011001 B
#4720000
0(
0)
01
03
0<
#4740000
0$
1(
1)
0,
01
13
04
1<
0?
b1000110011 B
#4760000
0(
0)
01
03
0<
#4780000
0!
1(
1)
00
01
13
15
1<
b1100110 B
#4800000
0"
0&
0'
0(
0)
0*
0.
01
03
17
08
0:
0<
0=
1>
0?
0@
1A
#4820000
1$
1(
1)
1,
01
0<
0?
#4840000
0(
0)
01
0<
#4860000
1(
1)
01
0<
#4880000
0(
0)
01
0<
#4900000
0$
1&
1'
1(
1)
0,
1.
01
17
08
0:
0<
0?
#4920000
0(
0)
01
0<
#4940000
1(
1)
01
0<
#4960000
0(
0)
01
0<
#4980000
1$
1(
1)
1,
01
0<
0?
#5000000
0&
0'
0(
0)
0.
01
17
08
0:
0<
#5020000
1(
1)
01
0<
#5040000
0(
0)
01
0<
#5060000
0$
1(
1)
0,
01
0<
0?
#5080000
0(
0)
01
0<
#5100000
1"
0#
1&
1'
1(
1)
1*
0+
1.
01
12
13
17
08
09
1:
1;
1<
0=
0>
0?
0@
0A
b11001100 B
#5120000
0(
1)
#5140000
1$
1(
1)
1,
14
1?
#5150000
1#
1)
1+
02
09
0:
0;
0=
#5160000
0(
0)
01
03
0<
#5180000
1(
1)
10
01
13
05
1<
0@
b110011001 B
#5200000
0&
0'
0(
0)
0.
01
03
17
08
0:
0<
#5220000
1!
0$
1(
1)
0,
00
01
13
04
1<
0?
0@
b1100110011 B
#5240000
0(
0)
01
03
0<
#5260000
1(
1)
10
01
13
15
1<
0@
b1001100110 B
#5280000
0(
0)
01
03
0<
#5300000
0!
1$
1&
1'
1(
1)
1,
1.
00
01
13
14
17
08
0:
1<
1?
0@
b11001100 B
#5320000
0(
0)
01
03
0<
#5340000
1(
1)
10
01
13
05
1<
0@
b110011001 B
#5360000
0(
0)
01
03
0<
#5370000
1%
1-
x/
01
x7
x8
#5380000
1!
0$
1(
1)
0,
00
x1
x2
13
04
x9
1<
0=
0?
0@
b1100110011 B
#5400000
0&
0'
0(
0)
0.
0/
01
02
03
07
18
09
0:
0<
0=
#5420000
0%
1(
1)
0-
10
11
12
13
15
07
18
19
1<
0=
0@
b1001100110 B
#5440000
0(
0)
01
02
03
09
0<
0=
#5460000
0!
1$
1(
1)
1,
00
11
12
13
14
19
1<
0=
1?
0@
b11001100 B
#5480000
0(
0)
01
02
03
09
0<
0=
#5500000
1&
1'
1(
1)
1.
1/
10
01
02
13
05
17
08
09
0:
1<
0=
0@
b110011001 B
#5520000
0(
0)
01
03
0<
#5540000
1!
0$
1(
1)
0,
00
01
13
04
1<
0?
0@
b1100110011 B
#5560000
0(
0)
01
03
0<
#5580000
1(
1)
10
01
13
15
1<
0@
b1001100110 B
#5600000
0&
0'
0(
0)
0.
01
03
17
08
0:
0<
#5620000
0!
1$
1(
1)
1,
00
01
13
14
1<
1?
0@
b11001100 B
#5640000
0(
0)
01
03
0<
#5660000
1(
1)
10
01
13
05
1<
0@
b110011001 B
#5680000
0(
0)
01
03
0<
#5700000
1!
0$
1&
1'
1(
1)
0,
1.
00
01
13
04
17
08
0:
1<
0?
0@
b1100110011 B
#5720000
0(
0)
01
03
0<
#5740000
1(
1)
10
01
13
15
1<
0@
b1001100110 B
#5760000
0(
0)
01
03
0<
#5780000
0!
1$
1(
1)
1,
00
01
13
14
1<
1?
0@
b11001100 B
#5800000
0&
0'
0(
0)
0.
01
03
17
08
0:
0<
#5820000
1(
1)
10
01
13
05
1<
0@
b110011001 B
#5840000
0(
0)
01
03
0<
#5860000
1!
0$
1(
1)
0,
00
01
13
04
1<
0?
0@
b1100110011 B
#5880000
0(
0)
01
03
0<
#5900000
0"
1&
1'
1(
1)
0*
1.
01
17
08
0:
0<
0=
1>
0?
0@
1A
#5920000
0(
0)
01
0<
#5940000
1$
1(
1)
1,
01
0<
0?
#5960000
0(
0)
01
0<
#5980000
1(
1)
01
0<
#6000000
0&
0'
0(
0)
0.
01
17
08
0:
0<
#6020000
0$
1(
1)
0,
01
0<
0?
#6040000
0(
0)
01
0<
#6060000
1(
1)
01
0<
#6080000
0(
0)
01
0<
#6100000
1$
1&
1'
1(
1)
1,
1.
01
17
08
0:
0<
0?
#6120000
0(
0)
01
0<
#6140000
1(
1)
01
0<
#6150000
0#
1)
0+
10
12
13
14
15
09
1:
1;
1=
1@
b1001100110 B
#6160000
0(
1)
#6180000
0$
1(
1)
0,
0?
#6200000
1"
0&
0'
0(
0)
1*
0.
01
02
03
04
17
08
0:
0<
0=
0>
0?
0@
0A
#6220000
1(
0)
#6240000
0(
0)
#6260000
1$
1(
0)
1,
14
1?
#6280000
0(
0)
#6300000
0!
1&
1'
1(
1)
1.
00
01
12
13
17
08
1:
1<
0=
0@
b11001101 B
#6320000
0(
1)
#6340000
0$
1(
1)
0,
04
0?
#6360000
0(
1)
#6380000
1(
1)
#6400000
0&
0'
0(
0)
0.
01
02
03
17
08
0:
0<
0=
#6420000
1$
1(
0)
1,
14
1?
#6440000
0(
0)
#6460000
1(
0)
#6480000
0(
0)
#6500000
0"
0$
1&
1'
1(
1)
0*
0,
1.
10
01
12
13
14
05
17
08
1:
0<
1=
1>
0?
1@
1A
b110011010 B
#6520000
0(
1)
#6540000
1(
1)
#6560000
0(
1)
#6580000
1$
1(
1)
1,
0?
#6600000
0&
0'
0(
0)
0.
01
02
03
17
08
0:
0<
0=
#6620000
1(
0)
#6640000
0(
0)
#6650000
1#
0)
1+
09
0:
0;
#6660000
0$
1(
1)
0,
01
0<
0?
#6680000
0(
0)
01
0<
#6700000
1&
1'
1(
1)
1.
01
17
08
0:
0<
#6720000
0(
0)
01
0<
#6740000
1$
1(
1)
1,
01
0<
0?
#6760000
0(
0)
01
0<
#6780000
1(
1)
01
0<
#6800000
1!
1"
0&
0'
0(
0)
1*
0.
00
01
03
14
17
08
0:
0<
0=
0>
1?
0@
0A
b1100110101 B
#6820000
0$
1(
1)
0,
10
01
13
04
15
1<
0?
0@
b1001101011 B
#6840000
0(
0)
01
03
0<
#6860000
0!
1(
1)
00
01
13
1<
0@
b11010110 B
#6880000
0(
0)
01
03
0<
#6900000
1$
1&
1'
1(
1)
1,
1.
10
01
13
14
05
17
08
0:
1<
1?
0@
b110101100 B
#6920000
0(
0)
01
03
0<
#6940000
1!
1(
1)
10
01
13
15
1<
b1101011001 B
#6960000
0(
0)
01
03
0<
#6980000
0$
1(
1)
0,
00
01
13
04
05
1<
0?
0@
b1010110011 B
#7000000
0&
0'
0(
0)
0.
01
03
17
08
0:
0<
#7020000
0!
1(
1)
00
01
13
15
1<
b101100110 B
#7040000
0(
0)
01
03
0<
#7060000
1!
1$
1(
1)
1,
10
01
13
14
1<
1?
0@
b1011001100 B
#7080000
0(
0)
01
03
0<
#7100000
0!
1&
1'
1(
1)
1.
10
01
13
05
17
08
0:
1<
b110011001 B
#7120000
0(
0)
01
03
0<
#7140000
1!
0$
1(
1)
0,
00
01
13
04
1<
0?
0@
b1100110011 B
#7160000
0(
0)
01
03
0<
#7180000
1(
1)
10
01
13
15
1<
0@
b1001100110 B
#7200000
0&
0'
0(
0)
0.
01
03
17
08
0:
0<
#7220000
0!
1$
1(
1)
1,
00
01
13
14
1<
1?
0@
b11001100 B
#7240000
0(
0)
01
03
0<
#7260000
1(
1)
10
01
13
05
1<
0@
b110011001 B
#7280000
0(
0)
01
03
0<
#7300000
1!
0$
1&
1'
1(
1)
0,
1.
00
01
13
04
17
08
0:
1<
0?
0@
b1100110011 B
#7320000
0(
0)
01
03
0<
#7340000
1(
1)
10
01
13
15
1<
0@
b1001100110 B
#7360000
0(
0)
01
03
0<
#7380000
0!
1$
1(
1)
1,
00
01
13
14
1<
1?
0@
b11001100 B
#7400000
0&
0'
0(
0)
0.
01
03
17
08
0:
0<
#7420000
1(
1)
10
01
13
05
1<
0@
b110011001 B
#7440000
0(
0)
01
03
0<
#7460000
1!
0$
1(
1)
0,
00
01
13
04
1<
0?
0@
b1100110011 B
#7480000
0(
0)
01
03
0<
#7500000
1&
1'
1(
1)
1.
10
01
13
15
17
08
0:
1<
0@
b1001100110 B
#7520000
0(
0)
01
03
0<
#7540000
0!
1$
1(
1)
1,
00
01
13
14
1<
1?
0@
b11001100 B
#7560000
0(
0)
01
03
0<
#7580000
1(
1)
10
01
13
05
1<
0@
b110011001 B
#7600000
0"
0&
0'
0(
0)
0*
0.
01
03
14
17
08
0:
0<
0=
1>
0?
1@
1A
#7620000
0$
1(
1)
0,
01
0<
0?
#7640000
0(
0)
01
0<
#7650000
0#
0)
0+
09
0:
1;
#7660000
1(
0)
#7680000
0(
0)
#7700000
1!
1#
1$
1&
1'
1(
1)
1+
1,
1.
00
01
02
03
04
17
08
09
0:
0;
0<
0=
0?
0@
b1100110011 B
#7720000
0(
0)
01
0<
#7740000
1(
1)
01
0<
#7760000
0(
0)
01
0<
#7780000
0$
1(
1)
0,
01
0<
0?
#7800000
0&
0'
0(
0)
0.
01
17
08
0:
0<
#7820000
1(
1)
01
0<
#7840000
0(
0)
01
0<
#7860000
1$
1(
1)
1,
01
0<
0?
#7880000
0(
0)
01
0<
#7900000
1"
1&
1'
1(
1)
1*
1.
10
01
13
14
15
17
08
0:
1<
0=
0>
1?
0@
0A
b1001100111 B
#7920000
0(
0)
01
03
0<
#7940000
0!
0$
1(
1)
0,
00
01
13
04
1<
0?
0@
b11001111 B
#7960000
0(
0)
01
03
0<
#7980000
1(
1)
10
01
13
05
1<
0@
b110011110 B
#8000000
0&
0'
0(
0)
0.
01
03
17
08
0:
0<
#8020000
1!
1$
1(
1)
1,
00
01
13
14
1<
1?
0@
b1100111100 B
#8030000
1%
1-
0/
11
12
07
18
19
0=
#8040000
0(
0)
01
02
03
09
0<
0=
#8060000
1(
1)
10
11
12
13
15
19
1<
0=
0@
b1001111001 B
#8080000
0%
0(
0)
0-
01
02
03
07
18
09
0<
0=
#8100000
0!
0$
1&
1'
1(
1)
0,
1.
1/
00
01
02
13
04
17
08
09
0:
1<
0=
0?
0@
b11110011 B
#8120000
0(
0)
01
03
0<
#8140000
1(
1)
01
13
1<
b111100110 B
#8160000
0(
0)
01
03
0<
#8180000
1!
1$
1(
1)
1,
10
01
13
14
1<
1?
0@
b1111001100 B
#8200000
0"
0&
0'
0(
0)
0*
0.
01
03
14
17
08
0:
0<
0=
1>
0?
1@
1A
#8220000
1(
1)
01
0<
#8240000
0(
0)
01
0<
#8260000
0$
1(
1)
0,
01
0<
0?
#8280000
0(
0)
01
0<
#8300000
1&
1'
1(
1)
1.
01
17
08
0:
0<
#8320000
0(
0)
01
0<
#8340000
1$
1(
1)
1,
01
0<
0?
#8360000
0(
0)
01
0<
#8380000
1(
1)
01
0<
#8400000
0&
0'
0(
0)
0.
01
17
08
0:
0<
#8420000
0$
1(
1)
0,
01
0<
0?
#8440000
0(
0)
01
0<
#8460000
1(
1)
01
0<
#8480000
0(
0)
01
0<
#8500000
1"
1$
1&
1'
1(
1)
1*
1,
1.
00
01
13
14
05
17
08
0:
1<
0=
0>
1?
0@
0A
b1110011000 B
#8520000
0(
0)
01
03
0<
#8540000
1(
1)
01
13
1<
b1100110001 B
#8560000
0(
0)
01
03
0<
#8580000
0$
1(
1)
0,
10
01
13
04
15
1<
0?
0@
b1001100011 B
#8600000
0&
0'
0(
0)
0.
01
03
17
08
0:
0<
#8620000
0!
1(
1)
00
01
13
1<
0@
b11000110 B
#8640000
0(
0)
01
03
0<
#8660000
1$
1(
1)
1,
10
01
13
14
05
1<
1?
0@
b110001100 B
#8680000
0(
0)
01
03
0<
#8700000
1!
0#
1&
1'
1(
1)
0+
1.
00
01
12
13
17
08
09
1:
1;
1<
0=
0@
b1100011001 B
#8720000
0(
1)
#8740000
0$
1(
1)
0,
04
0?
#8760000
0(
1)
#8780000
1(
1)
#8800000
0&
0'
0(
0)
0.
01
02
03
17
08
0:
0<
0=
#8820000
1$
1(
0)
1,
14
1?
#8840000
0(
0)
#8860000
1(
0)
#8880000
0(
0)
#8900000
0$
1&
1'
1(
1)
0,
1.
01
12
13
04
17
08
1:
1<
0=
0?
b1000110011 B
#8920000
0(
1)
#8940000
1(
1)
#8960000
0(
1)
#8980000
1$
1(
1)
1,
14
1?
#9000000
0&
0'
0(
0)
0.
01
02
03
17
08
0:
0<
0=
#9020000
1(
0)
#9040000
0(
0)
#9060000
0$
1(
0)
0,
04
0?
#9080000
0(
0)
#9100000
0!
1&
1'
1(
1)
1.
00
01
12
13
15
17
08
1:
1<
0=
b1100110 B
#9120000
0(
1)
#9140000
1$
1(
1)
1,
14
1?
#9160000
0(
1)
#9180000
1(
1)
#9200000
1#
0&
0'
0(
0)
1+
0.
01
02
03
17
08
09
0:
0;
0<
0=
#9220000
0$
1(
1)
0,
01
13
04
1<
0?
b11001101 B
#9240000
0(
0)
01
03
0<
#9260000
1(
1)
10
01
13
05
1<
0@
b110011010 B
#9280000
0(
0)
01
03
0<
#9300000
0"
1$
1&
1'
1(
1)
0*
1,
1.
01
14
17
08
0:
0<
0=
1>
0?
1@
1A
#9320000
0(
0)
01
0<
#9340000
1(
1)
01
0<
#9360000
0(
0)
01
0<
#9380000
0$
1(
1)
0,
01
0<
0?
#9400000
0&
0'
0(
0)
0.
01
17
08
0:
0<
#9420000
1(
1)
01
0<
#9440000
0(
0)
01
0<
#9460000
1$
1(
1)
1,
01
0<
0?
#9480000
0(
0)
01
0<
#9500000
1&
1'
1(
1)
1.
01
17
08
0:
0<
#9520000
0(
0)
01
0<
#9540000
0$
1(
1)
0,
01
0<
0?
#9560000
0(
0)
01
0<
#9580000
1(
1)
01
0<
#9600000
1!
1"
0&
0'
0(
0)
1*
0.
00
01
03
04
17
08
0:
0<
0=
0>
0?
0@
0A
b1100110100 B
#9620000
1$
1(
1)
1,
10
01
13
14
15
1<
1?
0@
b1001101000 B
#9640000
0(
0)
01
03
0<
#9660000
0!
1(
1)
00
01
13
1<
0@
b11010001 B
#9680000
0(
0)
01
03
0<
#9700000
0$
1&
1'
1(
1)
0,
1.
10
01
13
04
05
17
08
0:
1<
0?
0@
b110100011 B
#9720000
0(
0)
01
03
0<
#9740000
1!
1(
1)
10
01
13
15
1<
b1101000110 B
#9760000
0(
0)
01
03
0<
#9780000
1$
1(
1)
1,
00
01
13
14
05
1<
1?
0@
b1010001100 B
#9800000
0&
0'
0(
0)
0.
01
03
17
08
0:
0<
